%YAML 1.1
%TAG !u! tag:unity3d.com,2011:
--- !u!1001 &100100000
Prefab:
  m_ObjectHideFlags: 1
  serializedVersion: 2
  m_Modification:
    m_TransformParent: {fileID: 0}
    m_Modifications: []
    m_RemovedComponents: []
  m_ParentPrefab: {fileID: 0}
  m_RootGameObject: {fileID: 1402681229784358}
  m_IsPrefabParent: 1
--- !u!1 &1402681229784358
GameObject:
  m_ObjectHideFlags: 0
  m_PrefabParentObject: {fileID: 0}
  m_PrefabInternal: {fileID: 100100000}
  serializedVersion: 5
  m_Component:
  - component: {fileID: 4353540815694162}
  - component: {fileID: 114770506984477422}
  m_Layer: 0
  m_Name: LootTable
  m_TagString: LootTable
  m_Icon: {fileID: 0}
  m_NavMeshLayer: 0
  m_StaticEditorFlags: 0
  m_IsActive: 1
--- !u!4 &4353540815694162
Transform:
  m_ObjectHideFlags: 1
  m_PrefabParentObject: {fileID: 0}
  m_PrefabInternal: {fileID: 100100000}
  m_GameObject: {fileID: 1402681229784358}
  m_LocalRotation: {x: 0, y: 0, z: 0, w: 1}
  m_LocalPosition: {x: -69.12411, y: 2.5870607, z: 0.5234375}
  m_LocalScale: {x: 1, y: 1, z: 1}
  m_Children: []
  m_Father: {fileID: 0}
  m_RootOrder: 0
  m_LocalEulerAnglesHint: {x: 0, y: 0, z: 0}
--- !u!114 &114770506984477422
MonoBehaviour:
  m_ObjectHideFlags: 1
  m_PrefabParentObject: {fileID: 0}
  m_PrefabInternal: {fileID: 100100000}
  m_GameObject: {fileID: 1402681229784358}
  m_Enabled: 1
  m_EditorHideFlags: 0
  m_Script: {fileID: 11500000, guid: 522575629ac959c48aedf1df00aedb47, type: 3}
  m_Name: 
  m_EditorClassIdentifier: 
  _items:
  - {fileID: 1732629525984812, guid: 00b017a667b7fdd4e9ea3fdc286d920f, type: 2}
  - {fileID: 1111584224431696, guid: c239b3b4366bebd4a831b92df471e54f, type: 2}
  - {fileID: 1298808059398506, guid: 15689b0f4f2f3dc408eec940ba25ac31, type: 2}
  - {fileID: 1616080886583390, guid: 4c4b565075fa1f84cb2aef40ce46cb11, type: 2}
  - {fileID: 1621576337482818, guid: 1e2c511a494493a47b54150ff127e1bf, type: 2}
  - {fileID: 1084043734847776, guid: 767fa55d77245be4fb8de3be7edf4c33, type: 2}
